561890 300606
124507 951366
528759 611202
733 98465
101529 573845
903151 121694
834127 642575
390526 893845
377369 15371
889454 920661
708500 805003
584257 489526
962990 741588
22377 336918
471879 618415
38227 890270
785500 377007
880482 81636
812871 204482
714438 711844
51350 301590
40220 451659
833513 66297
460886 436557
322206 445454
487770 255446
104991 863731
354329 125390
342202 775579
629572 868299
972245 147489
30098 528830
578389 613172
371489 926121
94323 212609
868759 245133
81730 488525
640441 868779
727622 32846
308885 408043
532763 340418
797079 2668
759167 49010
595843 256524
79642 210964
17509 760986
714484 914670
504819 272985
517362 85489
40115 454645
468754 999764
821372 844768
698310 563087
559290 403887
706786 898763
632446 979234
671477 88888
851759 186587
419469 664439
159622 74936
88288 726287
691812 628608
156029 47385
534337 200211
940606 337616
536505 665746
678310 705257
112874 643711
940795 122741
239587 413807
153342 470974
617748 762144
300341 542169
63860 551686
51657 795835
89773 162499
871924 559765
474292 961248
164418 328215
446694 44789
294619 952690
875010 945336
738696 492722
210134 374811
172337 31265
980409 960646
948579 577969
136219 477695
321931 806891
589090 164710
195361 378171
361315 501890
232809 678520
696961 543628
857464 435541
569531 718785
48836 246763
751926 814889
849606 166147
479739 363466
85308 730200
362609 349198
285393 474911
763904 971434
152410 100040
118362 28168
851288 323719
47863 444853
660589 929599
198959 827410
620358 744006
159619 584958
725389 329709
371057 352253
449886 142764
521555 599050
731307 26779
318564 835160
469249 51410
245361 758178
217726 419433
280952 463159
943239 63744
488857 878703
159996 859238
489557 971384
792779 291514
168817 349350
871984 927512
759561 870950
290101 492169
543496 507502
590504 288447
930074 442639
938515 718298
924904 801236
768766 110779
641921 266390
863975 826675
391483 527567
373018 298845
110328 334073
963749 908184
673536 169126
965963 758434
439855 411356
693709 181719
866959 950360
23706 917915
988317 282578
162479 229523
112897 583945
10867 162533
304183 447279
788810 943968
259838 367105
804395 337913
187126 822315
836995 172555
628390 161237
557897 188617
340728 369620
301865 820876
684267 316621
594704 235118
941533 183737
589803 905889
156097 402438
452673 193958
193301 78686
939245 693299
109718 713467
665275 1950
470395 629122
404233 369121
624824 166592
862731 819935
866884 855378
743132 849643
362009 348084
915732 671240
341886 594577
330624 520958
803974 357542
915055 640345
373569 939494
80327 702804
565908 528900
939104 337268
91465 636376
681653 622790
713201 807913
384999 33955
180941 822902
995205 417526
874570 849793
277309 969241
358646 242241
413628 194965
667604 838436
967355 537971
899203 965199
575987 871381
558396 974510
278456 577452
313308 484987
146637 491497
827335 867094
218114 476540
387213 583230
338951 56706
909008 110921
84162 163252
763416 339651
175619 292053
592653 146814
559539 103944
615081 88593
223772 684499
598493 235431
762289 768686
471927 674294
410304 675732
707542 351101
478386 96201
561395 243231
