716043 606269 509
369884 785773 509
109682 386735 443
313006 590281 470
600345 597185 372
483445 954058 525
897288 24952 525
571021 103627 470
40550 537216 470
219169 324825 443
962984 334380 525
223958 430755 449
96695 167170 383
176174 554919 470
689643 392078 509
700544 216422 509
550088 915818 525
110662 959616 525
737650 367422 509
352763 13265 443
600553 324510 470
856330 206930 525
248295 822721 509
336793 68789 443
806895 905304 525
662461 898906 525
101381 255304 443
35522 971984 525
782678 919543 525
370859 413252 449
102 569189 470
228508 922833 525
279403 976211 525
277129 364589 441
270449 658015 509
841613 310680 525
70082 406024 443
347193 326020 441
851907 459527 525
59344 123577 354
880203 710361 525
753217 3768 509
322747 625513 470
683779 745267 504
744414 903283 525
19502 494937 449
348252 662698 509
998503 354553 525
818636 613519 509
228754 652754 509
952960 96125 525
116651 239035 443
253070 517998 470
597643 788405 509
604210 728406 509
828667 850727 525
898301 5989 525
832860 242506 509
892291 706058 525
281885 728978 509
309893 315561 384
938005 323241 525
208648 703276 509
990379 38192 525
74491 417602 449
222461 533976 470
141389 164923 383
973855 828802 525
831694 484303 509
405448 895709 525
809839 361144 509
777365 838690 525
318912 17756 443
976566 62336 525
492528 905607 525
900418 194560 525
210278 903243 525
191921 666836 509
675451 556856 509
260720 340379 407
614895 382949 470
451332 555362 470
463695 351581 449
108215 993116 525
299878 892326 525
77186 889856 525
507278 793315 509
453286 142321 449
150181 267157 443
444900 989889 525
961510 738914 525
793478 358819 509
282928 477141 449
330693 947573 525
162327 465814 449
618629 244278 470
305270 594630 470
72733 663538 509
448483 213472 449
286630 177153 443
933674 12293 525
926171 949026 507
843876 289884 525
350806 847159 525
457391 892146 525
948211 17638 525
494039 89081 449
860760 7338 525
56132 390111 443
219990 294816 443
755533 123771 509
285351 701890 509
470342 42410 449
227170 246815 443
226896 944217 525
395702 871257 525
637752 619546 509
627694 869897 525
70569 541323 470
727052 336632 509
549832 410095 470
951688 808986 525
924991 974696 507
624403 53683 470
762909 625008 509
195932 535870 470
33057 512372 470
745781 600608 509
262113 929187 525
854515 727486 525
737555 408587 509
683760 153610 509
965244 740619 525
430300 453291 400
387214 923046 525
170618 240447 443
319683 83028 443
571332 236641 470
913426 834905 525
109159 498981 449
482636 301187 449
406596 184825 443
55719 697032 509
514948 825048 509
944667 666372 525
136338 543081 470
207680 222508 386
253122 622818 470
534436 358106 470
259234 577211 470
812404 921664 525
326613 15494 443
141591 677155 509
481105 880385 525
795991 199747 509
620477 29597 470
628180 387645 509
954749 631714 525
393873 168019 443
447165 973507 525
844464 202028 525
460757 488184 444
706304 356654 509
243409 156475 443
596563 859647 525
295186 613327 470
889301 14045 525
322767 840570 525
867006 390370 525
276425 766818 509
483796 567570 470
559833 928943 525
195537 503484 449
92854 601311 470
6447 523719 470
793515 351824 509
551210 356385 470
628307 814402 504
998348 833273 525
625951 684176 509
97332 605239 470
945944 297539 525
806639 104491 509
811373 772912 468
679183 824351 504
509998 306169 449
48676 143270 375
356150 317436 441
43142 603414 470
245169 328799 407
264685 913782 525
777818 428596 509
35421 465304 449
569396 804303 509
805753 424906 509
987091 7012 525
954459 718490 525
695035 722802 504
523539 469252 470
520911 900360 525
547997 839063 525
133284 701094 509
947081 962683 414
671733 835030 504
219196 76074 386
10083 515904 470
287868 724126 509
405997 491961 449
485185 136347 449
433918 385917 449
665928 747812 504
730271 404113 509
187511 752262 509
375186 510602 449
594885 48964 470
71959 493804 449
130565 433501 449
743402 255416 509
677534 532359 509
612468 371483 470
538857 296427 470
670179 540918 509
785809 53672 509
624520 139861 470
435714 5247 449
938767 198572 525
18242 901482 525
11126 113441 354
202825 888718 525
246305 75670 443
727712 783567 468
297214 283378 389
886206 38227 525
326954 613122 470
451370 494918 444
752637 413769 509
687136 818867 504
551871 332576 470
601067 942365 525
368209 31469 443
