878833 281944
722953 898665
203571 79929
412304 112255
628558 452224
366976 416236
161323 438244
649236 648103
904986 1805
928376 414346
610300 857461
389559 200358
264804 974428
512471 618813
429626 565816
653376 198231
273759 434163
295413 637596
941329 890523
803795 664307
366429 95706
842694 695789
884922 473842
168837 599335
837047 193086
177835 380598
628926 987311
944957 244068
519951 835703
159182 276527
430768 588315
739040 658053
689197 842469
513435 584194
662280 606826
593225 899256
878487 697162
176045 211100
488690 495668
741408 534592
314848 712261
235629 846141
911650 584220
646593 791994
329160 49063
354050 205897
310894 204027
337041 400011
648705 710734
18452 651268
54753 951267
573563 410944
767514 122383
921494 136568
384554 416192
591336 698585
167269 36579
124051 380548
71984 76927
429970 614846
926219 974113
627381 735180
279680 328512
11010 502610
563069 329803
453222 907116
427554 769367
730962 525487
36807 619291
135954 691136
955110 785117
51596 89620
594116 687145
278983 491749
277652 982184
330497 5373
536760 133136
862077 463748
424691 784023
968004 176988
424164 441554
447338 899971
402852 854740
95371 808456
394453 866866
5739 545626
885770 972175
476849 780555
443987 646548
813636 33633
193849 780122
296408 688187
889588 609237
498007 892387
961275 971382
807983 397460
181467 394319
642071 473245
503923 265494
570933 885418
333967 770239
828558 139804
206179 414045
286448 467007
25481 907089
307524 493514
513548 677984
726967 495539
445633 430137
170501 527260
411376 190740
913381 816255
647786 283671
656515 495894
278969 461727
748728 823094
536616 847465
613088 645335
469216 301837
908267 300012
952591 578982
86276 596277
911661 575256
641048 310283
833555 142299
277978 979304
345960 837865
691140 224009
592515 792454
600621 523848
484958 938095
965047 568896
429490 439197
594179 706179
547357 28257
931488 641659
748209 899841
137773 921751
175698 155320
127345 713606
987360 523461
24299 77031
332920 14255
307461 118233
392700 986636
684546 622739
174570 505268
954427 69669
751269 201550
374726 533160
492746 758285
42229 827135
964645 430561
205762 12077
658556 137400
473730 431857
363321 396267
868134 438929
949165 485762
454346 692653
260492 577980
256965 875140
651139 875718
169067 255298
410160 460720
529070 813743
380631 997354
918932 155714
586811 738006
124303 544123
406506 809453
624685 204924
724096 338859
54787 750236
141434 662120
500190 664753
694231 401834
212708 831738
686822 502600
937502 181800
659257 413120
127731 655904
341612 569331
671479 411148
549400 71789
720709 924064
874644 465864
726145 194970
732137 956630
948969 419348
277043 996970
700435 912311
298772 148455
137595 148907
577298 696493
875853 648528
335015 283463
634309 568574
619908 188753
932509 118363
707081 634741
432343 370094
506748 441302
112423 539160
465151 936714
981717 931052
606810 816693
285687 476501
4673 460177
677409 185754
726676 478325
335581 97498
620404 38663
324246 46837
396686 1062
624229 230847
526815 827098
634200 104437
287618 806468
735831 792959
172852 262205
821667 753380
668513 715073
214984 860581
337521 479431
727835 608385
698571 416520
760465 853261
368019 747900
749414 638637
977422 339544
294492 229223
443978 715317
835204 284288
427162 115840
908617 929138
356894 996341
851704 485530
827772 905051
252289 602025
227938 686807
849974 257711
175082 208396
635514 285895
522636 581681
965322 270017
937976 305363
388375 216451
439757 834675
272400 270119
81896 949188
637907 638812
936660 763671
711163 699920
981973 634766
843761 352653
714084 930730
645529 233447
980814 385709
655211 65920
183006 112854
138717 873790
724283 255996
684476 867822
902459 638847
592244 321333
733020 330978
645371 380943
