300800 585711
644565 612975
660299 633764
76395 58630
960390 451245
936328 437286
67577 45098
675264 870026
800276 662126
358643 317717
777401 232067
47516 449410
165689 684457
500093 865313
323377 32132
7092 684863
793713 107977
708471 864765
120009 974281
128240 321994
758433 561907
906365 809202
858159 74115
961599 472036
540662 609833
589923 609047
319142 457496
419612 152380
678820 707724
15007 284052
678419 630183
810284 594943
164020 17868
27863 555872
704097 995726
770643 328807
535425 875861
262387 997451
212606 411651
689619 691886
652189 215822
820767 527465
186129 646917
977577 562975
776905 728579
718689 692249
621388 485454
272878 214921
377447 677660
904616 753370
497084 980528
943050 37869
76900 665856
784954 433447
935355 520214
171915 59553
163687 536686
532527 191910
325022 282713
251467 612306
742672 129522
191856 498325
359784 608954
285581 644095
210037 402475
788493 740682
682707 572475
310331 929306
322264 946548
349266 913308
341292 502848
2292 826892
157275 315575
812881 846158
19574 68690
149946 905377
821199 786003
859708 800946
437074 151018
775208 514443
149883 684015
364421 693083
285029 841662
1111 566138
697631 417837
352995 102698
77839 905094
734900 269824
823975 774852
438806 780358
516466 939074
215794 597036
581020 982972
938073 729927
633041 673762
380323 358553
74211 784568
270585 256376
836146 768688
268044 643698
121008 624173
713978 634093
55023 981913
640089 647876
624556 761901
597765 411796
31096 288344
646067 833070
629576 96749
299565 132517
120119 295197
495985 531177
341566 52266
133466 11289
27284 496870
584760 977221
530465 279803
222597 591818
831555 588950
417056 524341
538065 883999
615311 244761
670181 376682
649226 925400
10575 636762
325963 606784
177515 20605
847857 216137
73118 428890
106961 710137
729705 478048
400699 378157
681003 365356
296434 155813
472793 24446
976112 517735
879134 426826
888421 9553
81071 183715
516008 405605
306194 130684
229035 257963
971257 881130
780301 880144
175769 528742
29990 40545
601556 857540
269941 660202
880783 881777
275500 363971
860328 109358
437545 396219
783055 385844
180442 283721
147932 646795
812801 662776
128454 730458
534601 384267
991103 517829
863097 742559
75622 351119
827428 135601
782492 535748
933551 231112
760056 202405
76300 652818
256839 51762
47855 758020
334210 799612
259654 421308
6292 690815
877298 522150
941359 209577
834946 676213
893767 912685
455543 667566
221798 799370
621478 849823
341308 431262
318606 782406
724573 157232
610299 368970
793383 891478
102782 617303
987741 169538
462473 835706
455472 652816
389326 332886
519919 996662
2937 815040
399917 415483
902286 744315
154122 83078
942711 453120
13208 93143
402929 925861
400074 788324
80157 765777
175304 568733
387087 535302
409729 643907
185851 72231
735823 675947
169788 675013
738453 623332
452280 541207
346255 584469
535156 24103
981129 330220
557921 438581
177477 132739
181995 834675
544893 1539
7498 214708
192158 60301
278854 212984
272237 502633
996016 403653
119347 271141
375950 694687
779285 705102
501809 281820
408629 117554
225079 132916
609307 349139
641166 996801
340584 409016
