899301 225570
891220 792021
158332 385625
484534 943504
627576 328099
934865 903322
924316 877412
203664 567399
510774 287367
292948 29527
535817 433154
513928 856024
23196 886030
977636 602485
604620 44085
665031 788864
599875 13496
842949 627132
774360 802173
978046 203700
231946 550952
159508 110294
576740 647128
46276 520567
303926 46865
770993 428525
21776 446162
295555 89505
400713 830337
211961 894724
292405 20663
787152 450970
325646 842113
580350 388314
411135 123528
700209 594505
509449 418606
196743 764657
107363 626131
767233 584671
83176 323386
952730 177739
696839 905486
925911 579350
721857 472494
281224 457604
878258 684853
260586 61468
220009 759474
444074 342271
977362 14565
200372 113042
751512 209445
404502 726055
864297 921874
8964 520216
195296 393878
158228 270754
964902 294135
606851 170860
417046 369692
917444 695433
469486 637364
661696 143862
459786 781681
688584 898288
439155 151053
425704 671939
397036 310746
536377 593769
263252 531892
319278 976599
771322 595845
328030 868188
269062 830983
168838 233904
275018 260150
621487 269596
362379 20679
515343 934829
903528 115924
912274 666131
564922 147142
649646 381993
197805 600288
820645 363024
896989 357917
584209 159592
138914 521523
512462 19613
4974 32619
285423 593085
61027 353755
90221 720702
377106 863158
275999 2251
631238 301428
92496 710756
816875 781466
800465 670523
900284 849536
329058 995084
966381 420732
613086 885757
892664 588747
805457 309625
362650 170697
303678 544383
54699 231577
679450 712376
393216 663118
723963 252866
913776 273350
273718 238556
931377 772549
486033 326440
326077 949258
143481 417153
722341 655179
941530 396649
135686 331153
508070 300996
866092 438570
938220 894257
847029 855436
600830 704930
683305 977103
988826 646773
224094 408470
864295 291334
914428 782676
21154 54127
500298 601603
208060 784031
431310 138117
616246 71529
406251 186115
142184 750392
272954 522074
326026 607362
515481 453865
143667 78927
21689 587795
91373 98339
780289 299040
423228 482440
394246 123416
741965 147957
975973 548159
46218 903682
368684 922786
928320 386516
215643 475341
601781 854531
881799 725566
987322 882975
576974 111343
354891 314174
627885 128789
817018 91380
827744 904077
556087 966631
826205 556148
276157 137744
236928 387257
635224 245531
823198 869843
579279 192261
668418 89644
199176 589208
516427 784242
105798 780644
861404 10427
438758 616738
490241 471869
825047 965461
152826 144168
332954 516987
230567 933236
627671 914630
425478 477976
438846 741260
15376 562161
477976 107125
158361 763820
90558 937652
662271 700059
215969 335267
188142 133754
168563 997588
218438 734026
648859 31395
125215 675222
626870 433249
630562 356635
594442 544085
41201 524838
243685 212414
353052 236291
954018 901669
597915 701441
425378 65511
818881 220384
472892 576595
703644 28421
330691 940750
200837 624972
792008 592688
178851 90437
534852 748261
706837 545553
520190 27110
162176 562539
836283 671758
471086 426521
826458 609673
129024 82538
302056 367377
397373 175222
792247 41947
290235 707825
486197 209210
527011 553696
632148 76842
278469 930889
12915 551407
219009 279426
778929 649411
321407 106030
629690 811241
482253 964655
564431 787268
709698 904362
35469 504089
383798 126703
816806 325643
981075 593512
202772 560405
592648 706970
625009 735637
978788 546551
544179 73895
403754 184174
121083 276884
232875 732300
496133 908418
679310 563285
418814 960395
927426 245684
781352 478676
722163 846449
474173 730456
674381 640964
719798 42589
502109 415705
254640 372382
270335 781340
88822 639607
218310 597479
319964 893597
978729 818930
442240 656130
739088 491316
95462 836631
481397 273083
301451 922493
868422 600129
729823 341966
307565 956320
906192 789247
364856 297930
872158 98719
566557 555276
465851 284602
709731 531216
362863 393181
172531 482629
475989 925018
561734 594968
66768 703100
923689 782318
975885 396191
628581 429318
817541 98439
59101 122583
364535 14022
61637 272051
497375 953420
