711370 512009
918342 683711
220719 546853
791675 154732
638202 267679
20024 617837
209622 381108
835785 336534
393368 660154
634217 383267
925529 604568
408808 736383
39852 744415
796297 328460
774322 999603
61780 67250
47463 398689
773225 26097
588831 668521
405152 780531
549304 923783
931665 573526
341302 764201
867292 873897
364508 703490
964181 530610
933609 681727
618075 602865
118005 478
720037 828600
207024 791312
187626 207644
828257 795109
565507 944659
391388 343067
531578 682283
481119 825709
42862 195992
53833 971266
305252 731220
170196 558897
518779 757710
465920 681438
819703 858162
172108 597680
807370 961661
531510 989368
168854 737572
316730 915623
584292 32978
588458 940928
474466 853931
493395 288388
736166 502903
456980 369308
212828 583157
64291 527454
831342 739332
750146 964588
228394 544326
535808 868809
478684 773988
647942 801448
218617 322905
783925 852625
935637 233346
706765 502305
256080 698690
369363 869482
988203 927783
984302 816385
490014 760725
908522 341453
547072 578167
551296 466403
450941 259926
494853 211696
811763 960205
754229 928527
475308 298219
479268 556901
206386 833674
17401 367402
389530 191065
450943 336314
229125 245580
398315 102229
603793 106727
952828 847926
657542 148028
724297 872822
352874 260016
304795 943260
468985 796590
198266 764639
980600 491412
246006 886483
648374 854936
363433 135794
323082 372145
550883 655944
695969 882700
46563 125370
308216 290034
153939 45870
113871 300702
437061 653130
407111 334699
278333 853503
643227 22948
144461 244128
508751 810329
873486 123021
977410 352126
693176 147977
816429 95406
214487 261655
61039 832567
50721 83384
508021 402608
957548 682343
847748 223374
490739 872216
326457 297973
990119 363850
633711 882998
687482 174472
322992 956627
642890 942236
472888 190688
263988 825568
846574 355173
393775 475515
735115 280422
341422 928223
735810 128062
900843 417323
777272 154543
39381 64352
279256 449224
447710 88293
374230 225086
382417 69832
168312 506575
986313 630065
417146 420813
310483 672271
688892 164471
975103 982387
866343 78294
50367 394897
592475 535907
720715 175769
13831 565397
363960 894154
137874 192198
733769 701692
956362 415733
93141 389168
692563 144545
257897 737976
550658 164254
204614 80408
405642 797590
645613 584795
207697 332604
424631 770094
334304 108337
501209 636830
361926 36669
636206 434708
969480 904189
287088 415099
770696 593055
535571 364430
722037 892041
799606 246936
699306 61252
985661 738973
384560 809351
43697 837604
404487 722088
374231 859726
192390 301218
684415 480374
777617 833819
519722 955362
290075 623569
473406 519598
55105 26064
786696 901709
848913 336016
90058 133578
933370 737471
503162 478474
44516 505354
262202 100310
833770 159164
449029 456728
597743 214076
363732 290210
328945 405133
960344 54605
82616 909077
149098 476877
18053 718524
479763 244170
672459 632030
864380 2341
411018 623111
472062 541107
156345 249253
947239 149953
650401 178409
645632 423599
504472 505386
65402 187800
159483 809215
326295 370628
28388 723624
441824 37204
594838 880521
75072 66564
683125 495679
837825 415962
723233 325867
777247 467045
637743 120492
821543 319960
79397 660368
207945 228375
679813 696712
480934 989281
810288 960801
872200 12981
370811 687954
178066 169814
930105 256811
750345 954989
893615 605655
445498 358297
647952 422549
937506 228678
404673 503255
947663 386372
211349 460460
281570 786764
321576 517169
190867 839754
724742 476305
826441 899388
659914 477745
840023 205205
542027 981524
402795 52720
37411 184043
433023 68959
234404 789201
235651 525356
388079 146061
199487 861940
415895 298770
778927 880353
214133 375866
97400 917467
937639 55979
191971 118785
616792 142655
143370 504290
950138 78916
284392 311517
791991 640775
744319 853382
166541 302646
370468 351925
